\relax 
\providecommand \oddpage@label [2]{}
\@writefile{toc}{\contentsline {section}{\numberline {1}articulo}{1}{}\protected@file@percent }
\@writefile{toc}{\contentsline {section}{\numberline {2}Tabla comparativa}{1}{}\protected@file@percent }
\@writefile{lot}{\contentsline {table}{\numberline {1}{\ignorespaces Valores para \texttt  {funcion 1}.\relax }}{1}{}\protected@file@percent }
\@writefile{lot}{\contentsline {table}{\numberline {2}{\ignorespaces Valores para \texttt  {funcion 2}.\relax }}{1}{}\protected@file@percent }
\@writefile{lot}{\contentsline {table}{\numberline {3}{\ignorespaces Valores para \texttt  {funcion 1}.\relax }}{2}{}\protected@file@percent }
\@writefile{lot}{\contentsline {table}{\numberline {4}{\ignorespaces Valores para \texttt  {funcion 2}.\relax }}{2}{}\protected@file@percent }
\@writefile{lot}{\contentsline {table}{\numberline {5}{\ignorespaces Valores para \texttt  {funcion 1}.\relax }}{2}{}\protected@file@percent }
\@writefile{lot}{\contentsline {table}{\numberline {6}{\ignorespaces Valores para \texttt  {funcion 2}.\relax }}{2}{}\protected@file@percent }
\@writefile{lot}{\contentsline {table}{\numberline {7}{\ignorespaces Valores para \texttt  {funcion 1}.\relax }}{2}{}\protected@file@percent }
\@writefile{lot}{\contentsline {table}{\numberline {8}{\ignorespaces Valores para \texttt  {funcion 2}.\relax }}{2}{}\protected@file@percent }
\@writefile{lot}{\contentsline {table}{\numberline {9}{\ignorespaces Valores para \texttt  {funcion 1}.\relax }}{2}{}\protected@file@percent }
\@writefile{lot}{\contentsline {table}{\numberline {10}{\ignorespaces Valores para \texttt  {funcion 2}.\relax }}{2}{}\protected@file@percent }
\gdef \@abspage@last{2}
